LENGTH|LOCAL|12|52800
LENGTH|LOCAL|2|51124
LENGTH|LOCAL|2|51124
LENGTH|LOCAL|7|50285
LENGTH|LOCAL|0|66209
LENGTH|LOCAL|13|51124
LENGTH|LOCAL|13|51124
LENGTH|LOCAL|16|50285
LENGTH|LOCAL|9|71238
LENGTH|LOCAL|28|46095
LENGTH|LOCAL|29|46095
LENGTH|LOCAL|7|46933
LENGTH|LOCAL|34|46095
LENGTH|LOCAL|14|51962
LENGTH|LOCAL|7|51124
LENGTH|LOCAL|25|53638
LENGTH|LOCAL|19|51124
LENGTH|LOCAL|29|51124
LENGTH|LOCAL|40|67047
LENGTH|LOCAL|5|67047
LENGTH|LOCAL|6|68723
LENGTH|LOCAL|1|65371
LENGTH|LOCAL|20|67047
LENGTH|LOCAL|5|67047
LENGTH|LOCAL|19|50286
LENGTH|LOCAL|39|77943
LENGTH|LOCAL|40|50286
LENGTH|LOCAL|26|49448
LENGTH|LOCAL|36|46095
LENGTH|LOCAL|37|60343
LENGTH|LOCAL|30|50286
LENGTH|LOCAL|30|69562
LENGTH|LOCAL|40|65371
LENGTH|LOCAL|38|49448
LENGTH|LOCAL|12|50286
LENGTH|LOCAL|23|68724
LENGTH|LOCAL|10|72077
LENGTH|LOCAL|12|67886
LENGTH|LOCAL|10|51124
LENGTH|LOCAL|33|46095
LENGTH|LOCAL|8|50286
LENGTH|LOCAL|2|50285
LENGTH|LOCAL|34|51124
LENGTH|LOCAL|16|49448
LENGTH|LOCAL|22|46095
LENGTH|LOCAL|4|44419
LENGTH|LOCAL|33|50285
LENGTH|LOCAL|11|46095
LENGTH|LOCAL|39|51123
LENGTH|LOCAL|37|46096
LENGTH|LOCAL|16|46933
LENGTH|LOCAL|9|50286
LENGTH|LOCAL|13|105600
LENGTH|LOCAL|8|57829
LENGTH|LOCAL|2|49448
LENGTH|LOCAL|1|46096
LENGTH|LOCAL|40|54476
LENGTH|LOCAL|22|46096
LENGTH|LOCAL|4|51124
LENGTH|LOCAL|18|51124
LENGTH|LOCAL|33|50285
LENGTH|LOCAL|18|77943
LENGTH|LOCAL|7|51124
LENGTH|LOCAL|29|51124
LENGTH|LOCAL|38|46095
LENGTH|LOCAL|37|73752
LENGTH|LOCAL|23|50286
LENGTH|LOCAL|14|51124
LENGTH|LOCAL|24|50286
LENGTH|LOCAL|4|50285
LENGTH|LOCAL|3|50285
LENGTH|LOCAL|24|51124
LENGTH|LOCAL|1|46095
LENGTH|LOCAL|12|51124
LENGTH|LOCAL|20|50286
LENGTH|LOCAL|23|45258
LENGTH|LOCAL|16|50286
LENGTH|LOCAL|28|63695
LENGTH|LOCAL|30|51124
LENGTH|LOCAL|25|55315
LENGTH|LOCAL|10|50285
LENGTH|LOCAL|27|50285
LENGTH|LOCAL|8|49448
LENGTH|LOCAL|17|46095
LENGTH|LOCAL|40|46095
LENGTH|LOCAL|8|46095
LENGTH|LOCAL|25|46095
LENGTH|LOCAL|3|50285
LENGTH|LOCAL|4|46096
LENGTH|LOCAL|6|46096
LENGTH|LOCAL|36|45257
LENGTH|LOCAL|18|46096
LENGTH|LOCAL|2|51124
LENGTH|LOCAL|34|50286
LENGTH|LOCAL|33|51124
LENGTH|LOCAL|15|49448
LENGTH|LOCAL|22|50286
LENGTH|LOCAL|0|50286
LENGTH|LOCAL|14|45257
LENGTH|LOCAL|36|45258
LENGTH|LOCAL|35|63695
LENGTH|LOCAL|9|73753
LENGTH|LOCAL|3|74590
LENGTH|LOCAL|31|72076
LENGTH|LOCAL|28|68723
LENGTH|LOCAL|22|50286
LENGTH|LOCAL|11|68724
LENGTH|LOCAL|34|71238
LENGTH|LOCAL|22|46933
LENGTH|LOCAL|13|50285
LENGTH|LOCAL|34|52800
LENGTH|LOCAL|7|56990
LENGTH|LOCAL|40|50286
LENGTH|LOCAL|28|45257
LENGTH|LOCAL|21|62019
LENGTH|LOCAL|23|46934
LENGTH|LOCAL|36|51124
LENGTH|LOCAL|40|51124
LENGTH|LOCAL|23|51124
LENGTH|LOCAL|30|51124
LENGTH|LOCAL|15|51124
LENGTH|LOCAL|22|46096
LENGTH|LOCAL|24|47771
LENGTH|LOCAL|16|96382
LENGTH|LOCAL|2|52801
LENGTH|LOCAL|3|51962
LENGTH|LOCAL|11|51124
LENGTH|LOCAL|15|51124
LENGTH|LOCAL|25|51124
LENGTH|LOCAL|37|46933
LENGTH|LOCAL|9|46934
LENGTH|LOCAL|30|51124
LENGTH|LOCAL|37|51962
LENGTH|LOCAL|26|50286
LENGTH|LOCAL|10|67886
LENGTH|LOCAL|6|60343
LENGTH|LOCAL|29|56990
LENGTH|LOCAL|15|49448
LENGTH|LOCAL|10|55314
LENGTH|LOCAL|6|67886
LENGTH|LOCAL|7|51962
LENGTH|LOCAL|26|46096
LENGTH|LOCAL|22|51123
LENGTH|LOCAL|32|47771
LENGTH|LOCAL|20|51962
LENGTH|LOCAL|4|51124
LENGTH|LOCAL|38|51123
LENGTH|LOCAL|20|80456
LENGTH|LOCAL|28|46934
LENGTH|LOCAL|39|51124
LENGTH|LOCAL|38|46934
LENGTH|LOCAL|36|51123
LENGTH|LOCAL|37|51962
LENGTH|LOCAL|12|51962
LENGTH|LOCAL|15|51124
LENGTH|LOCAL|2|56152
LENGTH|LOCAL|22|51962
LENGTH|LOCAL|28|50285
LENGTH|LOCAL|27|51123
LENGTH|LOCAL|30|51124
LENGTH|LOCAL|10|50285
LENGTH|LOCAL|17|51962
LENGTH|LOCAL|5|49447
LENGTH|LOCAL|10|54476
LENGTH|LOCAL|4|50286
LENGTH|LOCAL|22|52799
LENGTH|LOCAL|20|51124
LENGTH|LOCAL|33|79619
LENGTH|LOCAL|3|49447
LENGTH|LOCAL|37|51123
LENGTH|LOCAL|23|51124
LENGTH|LOCAL|40|51124
LENGTH|LOCAL|9|50286
LENGTH|LOCAL|15|46096
LENGTH|LOCAL|20|49448
LENGTH|LOCAL|3|51124
LENGTH|LOCAL|9|54476
LENGTH|LOCAL|32|45257
LENGTH|LOCAL|37|51123
LENGTH|LOCAL|13|50286
LENGTH|LOCAL|21|50285
LENGTH|LOCAL|7|49448
LENGTH|LOCAL|12|50286
LENGTH|LOCAL|3|50286
LENGTH|LOCAL|17|50286
LENGTH|LOCAL|32|50286
LENGTH|LOCAL|16|45257
LENGTH|LOCAL|1|46095
LENGTH|LOCAL|7|45257
LENGTH|LOCAL|2|46095
LENGTH|LOCAL|8|49448
LENGTH|LOCAL|16|46933
LENGTH|LOCAL|1|60343
LENGTH|LOCAL|28|51123
LENGTH|LOCAL|38|63695
LENGTH|LOCAL|21|50286
LENGTH|LOCAL|26|46095
LENGTH|LOCAL|39|49448
LENGTH|LOCAL|25|49447
LENGTH|LOCAL|25|45257
LENGTH|LOCAL|39|49448
LENGTH|LOCAL|5|50286
LENGTH|LOCAL|3|95543
LENGTH|LOCAL|15|50286
LENGTH|LOCAL|18|50286
LENGTH|LOCAL|26|88838
LENGTH|LOCAL|23|46933
LENGTH|LOCAL|3|89676
LENGTH|LOCAL|37|46095
LENGTH|LOCAL|34|50285
LENGTH|LOCAL|22|51123
LENGTH|LOCAL|10|49447
LENGTH|LOCAL|28|79618
LENGTH|LOCAL|24|51962
LENGTH|LOCAL|31|46096
LENGTH|LOCAL|2|46095
LENGTH|LOCAL|5|46095
LENGTH|LOCAL|35|46096
LENGTH|LOCAL|16|51124
LENGTH|LOCAL|27|85486
LENGTH|LOCAL|26|50286
LENGTH|LOCAL|0|51124
LENGTH|LOCAL|16|46095
LENGTH|LOCAL|38|46095
LENGTH|LOCAL|40|45257
LENGTH|LOCAL|33|46095
LENGTH|LOCAL|24|46095
LENGTH|LOCAL|24|65372
LENGTH|LOCAL|7|51123
LENGTH|LOCAL|16|51962
LENGTH|LOCAL|22|54476
LENGTH|LOCAL|36|49448
LENGTH|LOCAL|34|46096
LENGTH|LOCAL|37|50286
LENGTH|LOCAL|26|49448
LENGTH|LOCAL|20|51963
LENGTH|LOCAL|21|50286
LENGTH|LOCAL|0|57828
LENGTH|LOCAL|16|70400
LENGTH|LOCAL|32|51124
LENGTH|LOCAL|39|50286
LENGTH|LOCAL|3|66209
LENGTH|LOCAL|32|68723
LENGTH|LOCAL|3|63695
LENGTH|LOCAL|32|60342
LENGTH|LOCAL|27|77943
LENGTH|LOCAL|17|66210
LENGTH|LOCAL|11|70400
LENGTH|LOCAL|30|76267
LENGTH|LOCAL|35|68724
LENGTH|LOCAL|9|72076
LENGTH|LOCAL|10|70400
LENGTH|LOCAL|20|51124
LENGTH|LOCAL|12|51962
LENGTH|LOCAL|38|46933
LENGTH|LOCAL|3|47772
LENGTH|LOCAL|25|46934
LENGTH|LOCAL|34|46933
LENGTH|LOCAL|0|46933
LENGTH|LOCAL|10|46933
LENGTH|LOCAL|4|46933
LENGTH|LOCAL|0|51123
LENGTH|LOCAL|8|59504
LENGTH|LOCAL|35|51124
LENGTH|LOCAL|9|51124
LENGTH|LOCAL|17|51124
LENGTH|LOCAL|36|46933
LENGTH|LOCAL|10|46934
LENGTH|LOCAL|35|46933
LENGTH|LOCAL|30|46933
LENGTH|LOCAL|15|51962
LENGTH|LOCAL|38|51124
LENGTH|LOCAL|2|46934
LENGTH|LOCAL|31|51124
LENGTH|LOCAL|35|46095
LENGTH|LOCAL|38|51962
LENGTH|LOCAL|19|50286
LENGTH|LOCAL|4|46933
LENGTH|LOCAL|31|46933
LENGTH|LOCAL|26|45258
LENGTH|LOCAL|29|86325
LENGTH|LOCAL|28|50286
LENGTH|LOCAL|1|50286
LENGTH|LOCAL|10|46095
LENGTH|LOCAL|24|50285
LENGTH|LOCAL|37|46095
LENGTH|LOCAL|27|46095
LENGTH|LOCAL|24|46095
LENGTH|LOCAL|6|46095
LENGTH|LOCAL|36|46095
LENGTH|LOCAL|5|46095
LENGTH|LOCAL|14|46095
LENGTH|LOCAL|7|45258
LENGTH|LOCAL|26|46095
LENGTH|LOCAL|21|46095
LENGTH|LOCAL|2|46933
LENGTH|LOCAL|18|49447
LENGTH|LOCAL|13|65371
LENGTH|LOCAL|30|49448
LENGTH|LOCAL|18|49448
LENGTH|LOCAL|7|51962
LENGTH|LOCAL|19|52800
LENGTH|LOCAL|31|86323
LENGTH|LOCAL|16|45257
LENGTH|LOCAL|5|49447
LENGTH|LOCAL|31|46095
LENGTH|LOCAL|15|46095
LENGTH|LOCAL|7|50286
LENGTH|LOCAL|18|49448
LENGTH|LOCAL|34|48609
LENGTH|LOCAL|2|50286
LENGTH|LOCAL|39|46095
LENGTH|LOCAL|0|45257
LENGTH|LOCAL|16|45257
LENGTH|LOCAL|8|46096
LENGTH|LOCAL|39|49447
LENGTH|LOCAL|14|49447
LENGTH|LOCAL|29|46095
LENGTH|LOCAL|10|52799
LENGTH|LOCAL|11|62856
LENGTH|LOCAL|40|65372
LENGTH|LOCAL|38|59505
LENGTH|LOCAL|19|60343
LENGTH|LOCAL|15|61181
LENGTH|LOCAL|34|66210
LENGTH|LOCAL|4|67048
LENGTH|LOCAL|20|46934
LENGTH|LOCAL|11|51124
LENGTH|LOCAL|23|48610
LENGTH|LOCAL|17|50286
LENGTH|LOCAL|23|46095
LENGTH|LOCAL|32|50285
LENGTH|LOCAL|34|46933
LENGTH|LOCAL|10|51124
LENGTH|LOCAL|37|52800
LENGTH|LOCAL|28|56991
LENGTH|LOCAL|9|67047
LENGTH|LOCAL|7|69561
LENGTH|LOCAL|28|68723
LENGTH|LOCAL|19|67047
LENGTH|LOCAL|27|62018
LENGTH|LOCAL|9|46095
LENGTH|LOCAL|22|45257
LENGTH|LOCAL|22|46095
LENGTH|LOCAL|3|45257
LENGTH|LOCAL|18|46095
LENGTH|LOCAL|31|51123
LENGTH|LOCAL|37|50286
LENGTH|LOCAL|32|50285
LENGTH|LOCAL|34|46095
LENGTH|LOCAL|15|46095
LENGTH|LOCAL|6|46095
LENGTH|LOCAL|6|45257
LENGTH|LOCAL|36|46095
LENGTH|LOCAL|12|46096
LENGTH|LOCAL|6|50286
LENGTH|LOCAL|36|46096
LENGTH|LOCAL|16|50286
LENGTH|LOCAL|2|58666
LENGTH|LOCAL|30|49448
LENGTH|LOCAL|33|50286
LENGTH|LOCAL|2|94704
LENGTH|LOCAL|25|46095
LENGTH|LOCAL|26|46096
LENGTH|LOCAL|18|46095
LENGTH|LOCAL|18|46095
LENGTH|LOCAL|15|49447
LENGTH|LOCAL|12|49448
LENGTH|LOCAL|7|52801
LENGTH|LOCAL|21|46095
LENGTH|LOCAL|2|46095
LENGTH|LOCAL|7|46095
LENGTH|LOCAL|22|46095
LENGTH|LOCAL|32|46095
LENGTH|LOCAL|14|51124
LENGTH|LOCAL|29|51123
LENGTH|LOCAL|39|53637
LENGTH|LOCAL|0|50285
LENGTH|LOCAL|27|46933
LENGTH|LOCAL|19|46933
LENGTH|LOCAL|9|46095
LENGTH|LOCAL|5|46095
LENGTH|LOCAL|30|62857
LENGTH|LOCAL|3|49448
LENGTH|LOCAL|15|66210
LENGTH|LOCAL|32|49448
LENGTH|LOCAL|3|49447
LENGTH|LOCAL|16|51124
LENGTH|LOCAL|23|45258
LENGTH|LOCAL|11|46933
LENGTH|LOCAL|28|45257
LENGTH|LOCAL|4|45257
LENGTH|LOCAL|33|46095
LENGTH|LOCAL|9|51124
LENGTH|LOCAL|40|51124
LENGTH|LOCAL|0|77944
LENGTH|LOCAL|27|46096
LENGTH|LOCAL|11|45257
LENGTH|LOCAL|6|46095
LENGTH|LOCAL|35|46095
LENGTH|LOCAL|25|46095
LENGTH|LOCAL|0|50286
LENGTH|LOCAL|20|51124
LENGTH|LOCAL|34|49448
LENGTH|LOCAL|4|51962
LENGTH|LOCAL|38|50285
LENGTH|LOCAL|39|51124
LENGTH|LOCAL|17|77943
LENGTH|LOCAL|0|52800
LENGTH|LOCAL|37|52800
LENGTH|LOCAL|25|46096
LENGTH|LOCAL|1|46095
LENGTH|LOCAL|8|51124
LENGTH|LOCAL|18|50286
LENGTH|LOCAL|19|51124
LENGTH|LOCAL|10|50286
LENGTH|LOCAL|11|49448
LENGTH|LOCAL|5|46096
LENGTH|LOCAL|27|46095
LENGTH|LOCAL|29|50286
LENGTH|LOCAL|37|65371
LENGTH|LOCAL|25|51123
LENGTH|LOCAL|6|62019
LENGTH|LOCAL|34|46095
LENGTH|LOCAL|35|66209
LENGTH|LOCAL|23|46095
LENGTH|LOCAL|22|46095
LENGTH|LOCAL|36|51962
LENGTH|LOCAL|0|50286
LENGTH|LOCAL|24|51124
LENGTH|LOCAL|14|46096
LENGTH|LOCAL|30|49448
LENGTH|LOCAL|3|46933
LENGTH|LOCAL|16|46095
LENGTH|LOCAL|4|56152
LENGTH|LOCAL|35|50286
LENGTH|LOCAL|19|60342
LENGTH|LOCAL|17|46095
LENGTH|LOCAL|3|56990
LENGTH|LOCAL|16|50286
LENGTH|LOCAL|5|85486
LENGTH|LOCAL|0|46096
LENGTH|LOCAL|27|46095
LENGTH|LOCAL|39|50286
LENGTH|LOCAL|19|78781
LENGTH|LOCAL|30|50286
LENGTH|LOCAL|37|49448
LENGTH|LOCAL|35|46095
LENGTH|LOCAL|14|45258
LENGTH|LOCAL|10|47772
LENGTH|LOCAL|1|45257
LENGTH|LOCAL|26|50286
LENGTH|LOCAL|7|46095
LENGTH|LOCAL|20|46095
LENGTH|LOCAL|23|46096
LENGTH|LOCAL|18|50286
LENGTH|LOCAL|21|58667
LENGTH|LOCAL|19|55315
LENGTH|LOCAL|21|45257
LENGTH|LOCAL|10|46095
LENGTH|LOCAL|33|46095
LENGTH|LOCAL|24|46933
LENGTH|LOCAL|12|46933
LENGTH|LOCAL|10|53638
LENGTH|LOCAL|23|50286
LENGTH|LOCAL|39|69561
LENGTH|LOCAL|23|46095
LENGTH|LOCAL|4|46095
LENGTH|LOCAL|3|46095
LENGTH|LOCAL|31|46095
LENGTH|LOCAL|5|46095
LENGTH|LOCAL|1|45258
LENGTH|LOCAL|27|46095
LENGTH|LOCAL|26|46095
LENGTH|LOCAL|17|51123
LENGTH|LOCAL|12|49447
LENGTH|LOCAL|28|44419
LENGTH|LOCAL|19|46096
LENGTH|LOCAL|22|51124
LENGTH|LOCAL|31|85486
LENGTH|LOCAL|8|46095
LENGTH|LOCAL|3|46096
LENGTH|LOCAL|39|49447
LENGTH|LOCAL|27|50286
LENGTH|LOCAL|5|51124
LENGTH|LOCAL|2|49448
LENGTH|LOCAL|17|45257
LENGTH|LOCAL|34|46095
LENGTH|LOCAL|10|50285
LENGTH|LOCAL|7|90514
LENGTH|LOCAL|31|51124
LENGTH|LOCAL|40|57828
LENGTH|LOCAL|15|46095
LENGTH|LOCAL|9|53639
LENGTH|LOCAL|16|49448
LENGTH|LOCAL|11|50286
LENGTH|LOCAL|11|45257
LENGTH|LOCAL|0|51124
LENGTH|LOCAL|0|77942
LENGTH|LOCAL|33|51124
LENGTH|LOCAL|40|46095
LENGTH|LOCAL|26|46095
LENGTH|LOCAL|12|50286
LENGTH|LOCAL|23|51961
LENGTH|LOCAL|10|50286
LENGTH|LOCAL|14|56990
LENGTH|LOCAL|20|45257
LENGTH|LOCAL|38|46934
LENGTH|LOCAL|14|54477
LENGTH|LOCAL|39|51124
LENGTH|LOCAL|31|51124
LENGTH|LOCAL|36|68724
LENGTH|LOCAL|9|46933
LENGTH|LOCAL|4|46095
LENGTH|LOCAL|13|46095
LENGTH|LOCAL|16|50285
LENGTH|LOCAL|17|50286
LENGTH|LOCAL|31|70400
LENGTH|LOCAL|25|62858
LENGTH|LOCAL|2|107277
LENGTH|LOCAL|20|71239
LENGTH|LOCAL|37|70401
LENGTH|LOCAL|22|66210
LENGTH|LOCAL|11|64533
LENGTH|LOCAL|4|50286
LENGTH|LOCAL|24|46095
LENGTH|LOCAL|35|50285
LENGTH|LOCAL|6|66209
LENGTH|LOCAL|10|71237
LENGTH|LOCAL|40|51962
LENGTH|LOCAL|37|50286
LENGTH|LOCAL|22|56990
LENGTH|LOCAL|26|50286
LENGTH|LOCAL|29|49447
LENGTH|LOCAL|15|50286
LENGTH|LOCAL|11|50285
LENGTH|LOCAL|3|49448
LENGTH|LOCAL|33|51124
LENGTH|LOCAL|0|46095
LENGTH|LOCAL|13|46095
LENGTH|LOCAL|39|51123
LENGTH|LOCAL|1|50286
LENGTH|LOCAL|4|49448
LENGTH|LOCAL|16|51124
LENGTH|LOCAL|23|69562
LENGTH|LOCAL|30|58666
LENGTH|LOCAL|17|51124
LENGTH|LOCAL|9|47771
LENGTH|LOCAL|21|72076
LENGTH|LOCAL|3|51124
LENGTH|LOCAL|5|71238
LENGTH|LOCAL|30|51962
LENGTH|LOCAL|16|50286
LENGTH|LOCAL|25|51124
LENGTH|LOCAL|15|46933
LENGTH|LOCAL|30|70400
LENGTH|LOCAL|13|51124
LENGTH|LOCAL|10|47771
LENGTH|LOCAL|8|56991
LENGTH|LOCAL|4|46933
LENGTH|LOCAL|31|46933
LENGTH|LOCAL|35|47771
LENGTH|LOCAL|35|46933
LENGTH|LOCAL|21|67886
LENGTH|LOCAL|32|54477
LENGTH|LOCAL|12|62857
LENGTH|LOCAL|40|46095
LENGTH|LOCAL|21|46095
LENGTH|LOCAL|6|45257
LENGTH|LOCAL|25|46095
LENGTH|LOCAL|25|46095
LENGTH|LOCAL|19|50285
LENGTH|LOCAL|37|46094
LENGTH|LOCAL|36|50285
LENGTH|LOCAL|35|50285
LENGTH|LOCAL|26|50286
LENGTH|LOCAL|15|50286
LENGTH|LOCAL|21|50286
LENGTH|LOCAL|3|51124
LENGTH|LOCAL|12|49448
LENGTH|LOCAL|33|46095
LENGTH|LOCAL|40|50286
LENGTH|LOCAL|31|46096
LENGTH|LOCAL|5|45257
LENGTH|LOCAL|9|46096
LENGTH|LOCAL|21|46095
LENGTH|LOCAL|5|49448
LENGTH|LOCAL|18|51125
LENGTH|LOCAL|5|46095
LENGTH|LOCAL|3|50286
LENGTH|LOCAL|0|51124
LENGTH|LOCAL|24|50286
LENGTH|LOCAL|13|51124
LENGTH|LOCAL|15|45257
LENGTH|LOCAL|4|54476
LENGTH|LOCAL|17|49448
LENGTH|LOCAL|9|78781
LENGTH|LOCAL|35|53637
LENGTH|LOCAL|12|50285
LENGTH|LOCAL|24|60342
LENGTH|LOCAL|18|60343
LENGTH|LOCAL|18|59504
LENGTH|LOCAL|17|68724
LENGTH|LOCAL|28|50286
LENGTH|LOCAL|5|66210
LENGTH|LOCAL|16|57829
LENGTH|LOCAL|31|51962
LENGTH|LOCAL|7|56991
LENGTH|LOCAL|9|50286
LENGTH|LOCAL|35|49448
LENGTH|LOCAL|32|50286
LENGTH|LOCAL|22|49448
LENGTH|LOCAL|25|49447
LENGTH|LOCAL|33|98057
LENGTH|LOCAL|7|71238
LENGTH|LOCAL|25|51124
LENGTH|LOCAL|14|72076
LENGTH|LOCAL|14|71237
LENGTH|LOCAL|7|69562
LENGTH|LOCAL|23|55314
LENGTH|LOCAL|6|51123
LENGTH|LOCAL|34|50286
LENGTH|LOCAL|26|50285
LENGTH|LOCAL|28|50286
LENGTH|LOCAL|20|72076
LENGTH|LOCAL|33|49448
LENGTH|LOCAL|30|57829
LENGTH|LOCAL|20|62857
LENGTH|LOCAL|21|46095
LENGTH|LOCAL|36|49448
LENGTH|LOCAL|35|48609
LENGTH|LOCAL|19|50286
LENGTH|LOCAL|40|51123
LENGTH|LOCAL|37|46095
LENGTH|LOCAL|11|46096
LENGTH|LOCAL|5|46095
LENGTH|LOCAL|37|51124
LENGTH|LOCAL|13|51124
LENGTH|LOCAL|18|51124
LENGTH|LOCAL|22|50286
LENGTH|LOCAL|5|46096
LENGTH|LOCAL|9|51962
LENGTH|LOCAL|2|77943
LENGTH|LOCAL|26|91353
LENGTH|LOCAL|37|49448
LENGTH|LOCAL|12|50286
LENGTH|LOCAL|1|49448
LENGTH|LOCAL|18|50286
LENGTH|LOCAL|0|50286
LENGTH|LOCAL|5|53638
LENGTH|LOCAL|34|51123
LENGTH|LOCAL|27|49447
LENGTH|LOCAL|6|45257
LENGTH|LOCAL|38|46095
LENGTH|LOCAL|24|49447
LENGTH|LOCAL|36|45257
LENGTH|LOCAL|5|46095
LENGTH|LOCAL|14|46095
LENGTH|LOCAL|13|50286
LENGTH|LOCAL|35|49447
LENGTH|LOCAL|25|51962
LENGTH|LOCAL|10|46096
LENGTH|LOCAL|14|46095
LENGTH|LOCAL|29|50286
LENGTH|LOCAL|37|46095
LENGTH|LOCAL|8|79619
LENGTH|LOCAL|2|45258
LENGTH|LOCAL|21|44419
LENGTH|LOCAL|35|46096
LENGTH|LOCAL|27|46096
LENGTH|LOCAL|36|49448
LENGTH|LOCAL|27|50285
LENGTH|LOCAL|4|50286
LENGTH|LOCAL|39|92191
LENGTH|LOCAL|36|50285
LENGTH|LOCAL|39|46095
LENGTH|LOCAL|28|54476
LENGTH|LOCAL|12|103924
LENGTH|LOCAL|4|50286
LENGTH|LOCAL|11|45257
LENGTH|LOCAL|3|51124
LENGTH|LOCAL|8|46095
LENGTH|LOCAL|2|46095
LENGTH|LOCAL|35|59505
LENGTH|LOCAL|31|63695
LENGTH|LOCAL|28|77105
LENGTH|LOCAL|24|72076
LENGTH|LOCAL|25|67048
LENGTH|LOCAL|23|67885
LENGTH|LOCAL|18|64534
LENGTH|LOCAL|40|51124
LENGTH|LOCAL|16|51123
LENGTH|LOCAL|40|73753
LENGTH|LOCAL|8|50285
LENGTH|LOCAL|0|50285
LENGTH|LOCAL|23|63696
LENGTH|LOCAL|8|67886
LENGTH|LOCAL|37|72915
LENGTH|LOCAL|7|51962
LENGTH|LOCAL|17|58667
LENGTH|LOCAL|8|51124
LENGTH|LOCAL|7|50285
LENGTH|LOCAL|36|64534
LENGTH|LOCAL|5|64534
LENGTH|LOCAL|35|55314
LENGTH|LOCAL|39|50286
LENGTH|LOCAL|29|101409
LENGTH|LOCAL|36|49448
LENGTH|LOCAL|10|51962
LENGTH|LOCAL|37|69562
LENGTH|LOCAL|29|67048
LENGTH|LOCAL|30|106438
LENGTH|LOCAL|25|83810
LENGTH|LOCAL|22|51124
LENGTH|LOCAL|11|51962
LENGTH|LOCAL|3|74590
LENGTH|LOCAL|29|51962
LENGTH|LOCAL|14|46095
LENGTH|LOCAL|4|45257
LENGTH|LOCAL|37|50286
LENGTH|LOCAL|30|50285
LENGTH|LOCAL|33|50285
LENGTH|LOCAL|11|49448
LENGTH|LOCAL|35|45257
LENGTH|LOCAL|19|50286
LENGTH|LOCAL|0|50286
LENGTH|LOCAL|37|51124
LENGTH|LOCAL|2|56991
LENGTH|LOCAL|8|50286
LENGTH|LOCAL|10|49448
LENGTH|LOCAL|35|53638
LENGTH|LOCAL|0|50286
LENGTH|LOCAL|23|44419
LENGTH|LOCAL|34|50286
LENGTH|LOCAL|12|46096
LENGTH|LOCAL|0|46095
LENGTH|LOCAL|8|81295
LENGTH|LOCAL|40|56990
LENGTH|LOCAL|20|77943
LENGTH|LOCAL|18|51124
LENGTH|LOCAL|34|50286
LENGTH|LOCAL|1|50286
LENGTH|LOCAL|0|59505
LENGTH|LOCAL|33|59505
LENGTH|LOCAL|30|46095
LENGTH|LOCAL|18|46095
LENGTH|LOCAL|11|50286
LENGTH|LOCAL|19|46095
LENGTH|LOCAL|6|46095
LENGTH|LOCAL|16|50286
LENGTH|LOCAL|36|46933
LENGTH|LOCAL|13|50286
LENGTH|LOCAL|14|49448
LENGTH|LOCAL|28|49448
LENGTH|LOCAL|8|50285
LENGTH|LOCAL|2|57828
LENGTH|LOCAL|5|66209
LENGTH|LOCAL|28|46096
LENGTH|LOCAL|40|49447
LENGTH|LOCAL|6|50285
LENGTH|LOCAL|9|51962
LENGTH|LOCAL|13|46096
LENGTH|LOCAL|29|46095
LENGTH|LOCAL|14|50286
LENGTH|LOCAL|4|50286
LENGTH|LOCAL|2|50286
LENGTH|LOCAL|9|50286
LENGTH|LOCAL|12|91352
LENGTH|LOCAL|34|62019
LENGTH|LOCAL|22|68724
LENGTH|LOCAL|32|51961
LENGTH|LOCAL|35|51124
LENGTH|LOCAL|28|51962
LENGTH|LOCAL|25|67885
LENGTH|LOCAL|19|66209
LENGTH|LOCAL|30|51124
LENGTH|LOCAL|26|51962
LENGTH|LOCAL|17|48610
LENGTH|LOCAL|2|51124
LENGTH|LOCAL|25|66210
LENGTH|LOCAL|12|51962
LENGTH|LOCAL|12|46933
LENGTH|LOCAL|2|51124
LENGTH|LOCAL|6|51124
LENGTH|LOCAL|22|68724
LENGTH|LOCAL|12|51124
LENGTH|LOCAL|20|62019
LENGTH|LOCAL|35|50286
LENGTH|LOCAL|6|49448
LENGTH|LOCAL|28|46095
LENGTH|LOCAL|3|50286
LENGTH|LOCAL|4|46095
LENGTH|LOCAL|37|45257
LENGTH|LOCAL|39|51124
LENGTH|LOCAL|17|46095
LENGTH|LOCAL|4|51123
LENGTH|LOCAL|36|51124
LENGTH|LOCAL|38|51123
LENGTH|LOCAL|38|45257
LENGTH|LOCAL|21|46095
LENGTH|LOCAL|38|46095
LENGTH|LOCAL|17|45257
LENGTH|LOCAL|35|46095
LENGTH|LOCAL|35|46095
LENGTH|LOCAL|31|78781
LENGTH|LOCAL|11|51124
LENGTH|LOCAL|13|49448
LENGTH|LOCAL|16|50286
LENGTH|LOCAL|25|50286
LENGTH|LOCAL|0|49447
LENGTH|LOCAL|14|67886
LENGTH|LOCAL|6|51124
LENGTH|LOCAL|14|50286
LENGTH|LOCAL|3|51962
LENGTH|LOCAL|17|46096
LENGTH|LOCAL|34|47771
LENGTH|LOCAL|11|50286
LENGTH|LOCAL|35|45257
LENGTH|LOCAL|4|46095
LENGTH|LOCAL|23|46096
LENGTH|LOCAL|16|45257
LENGTH|LOCAL|4|46096
LENGTH|LOCAL|9|61180
LENGTH|LOCAL|0|49448
LENGTH|LOCAL|13|107276
LENGTH|LOCAL|38|46096
LENGTH|LOCAL|18|46934
LENGTH|LOCAL|12|51124
LENGTH|LOCAL|3|72076
LENGTH|LOCAL|6|52800
LENGTH|LOCAL|27|46934
LENGTH|LOCAL|37|46933
LENGTH|LOCAL|33|46934
LENGTH|LOCAL|31|46934
LENGTH|LOCAL|15|46933
LENGTH|LOCAL|23|51123
LENGTH|LOCAL|0|50286
LENGTH|LOCAL|3|51962
LENGTH|LOCAL|23|51124
LENGTH|LOCAL|26|51123
LENGTH|LOCAL|18|51124
LENGTH|LOCAL|34|46933
LENGTH|LOCAL|14|51124
LENGTH|LOCAL|10|93866
LENGTH|LOCAL|19|53638
LENGTH|LOCAL|22|56991
LENGTH|LOCAL|1|69562
LENGTH|LOCAL|12|67047
LENGTH|LOCAL|1|67048
LENGTH|LOCAL|28|67048
LENGTH|LOCAL|16|67048
LENGTH|LOCAL|38|66209
LENGTH|LOCAL|30|66209
LENGTH|LOCAL|37|67047
LENGTH|LOCAL|39|67047
LENGTH|LOCAL|32|67047
LENGTH|LOCAL|12|62019
LENGTH|LOCAL|23|46095
LENGTH|LOCAL|22|46096
LENGTH|LOCAL|22|46095
LENGTH|LOCAL|14|50285
LENGTH|LOCAL|34|102248
LENGTH|LOCAL|32|50285
LENGTH|LOCAL|31|50286
LENGTH|LOCAL|3|54476
LENGTH|LOCAL|23|46095
LENGTH|LOCAL|11|46095
LENGTH|LOCAL|25|46095
LENGTH|LOCAL|31|46096
LENGTH|LOCAL|32|50286
LENGTH|LOCAL|18|50286
LENGTH|LOCAL|18|51124
LENGTH|LOCAL|25|46095
LENGTH|LOCAL|17|46095
LENGTH|LOCAL|8|46095
LENGTH|LOCAL|19|51123
LENGTH|LOCAL|26|46095
LENGTH|LOCAL|13|49447
LENGTH|LOCAL|35|56152
LENGTH|LOCAL|13|50286
LENGTH|LOCAL|32|49448
LENGTH|LOCAL|14|51124
LENGTH|LOCAL|38|51124
LENGTH|LOCAL|38|46933
LENGTH|LOCAL|12|48610
LENGTH|LOCAL|6|51124
LENGTH|LOCAL|14|46933
LENGTH|LOCAL|26|46933
LENGTH|LOCAL|5|77943
LENGTH|LOCAL|6|51962
LENGTH|LOCAL|18|51962
LENGTH|LOCAL|17|51124
LENGTH|LOCAL|26|51124
LENGTH|LOCAL|27|51124
LENGTH|LOCAL|39|51124
LENGTH|LOCAL|0|51124
LENGTH|LOCAL|20|87163
LENGTH|LOCAL|8|51962
LENGTH|LOCAL|17|46933
LENGTH|LOCAL|34|51123
LENGTH|LOCAL|10|51123
LENGTH|LOCAL|16|46933
LENGTH|LOCAL|35|46933
LENGTH|LOCAL|17|52800
LENGTH|LOCAL|11|50285
LENGTH|LOCAL|14|53638
LENGTH|LOCAL|15|46095
LENGTH|LOCAL|23|49447
LENGTH|LOCAL|38|46933
LENGTH|LOCAL|37|49448
LENGTH|LOCAL|17|50285
LENGTH|LOCAL|36|50285
LENGTH|LOCAL|3|46095
LENGTH|LOCAL|21|46095
LENGTH|LOCAL|40|50285
LENGTH|LOCAL|12|56153
LENGTH|LOCAL|28|51124
LENGTH|LOCAL|17|74591
LENGTH|LOCAL|23|46095
LENGTH|LOCAL|18|46096
LENGTH|LOCAL|3|46096
LENGTH|LOCAL|20|46096
LENGTH|LOCAL|6|46095
LENGTH|LOCAL|11|46096
LENGTH|LOCAL|13|46095
LENGTH|LOCAL|23|50286
LENGTH|LOCAL|11|46095
LENGTH|LOCAL|9|46095
LENGTH|LOCAL|31|46933
LENGTH|LOCAL|3|46933
LENGTH|LOCAL|4|46933
LENGTH|LOCAL|30|46933
LENGTH|LOCAL|2|107275
LENGTH|LOCAL|28|67886
LENGTH|LOCAL|20|51124
LENGTH|LOCAL|34|51962
LENGTH|LOCAL|11|83809
LENGTH|LOCAL|11|65371
LENGTH|LOCAL|39|72076
LENGTH|LOCAL|37|51124
